{
	"shell-version": [
        "3.14", "3.16", "3.18", "3.20", "3.22", "3.24", "3.26", "3.28"],
	"uuid": "toggle-touchpad@martin.kopta.eu",
	"name": "Toggle Touchpad",
	"description": "Switch touchpad on and off"
}
